<svg width="12" height="18" viewBox="0 0 12 18" fill="none" xmlns="http://www.w3.org/2000/svg">
<path d="M6 0C2.8515 0 0 2.55225 0 5.7015C0 8.85 2.60175 12.609 6 18C9.39825 12.609 12 8.85 12 5.7015C12 2.55225 9.14925 0 6 0ZM6 8.25C4.75725 8.25 3.75 7.24275 3.75 6C3.75 4.75725 4.75725 3.75 6 3.75C7.24275 3.75 8.25 4.75725 8.25 6C8.25 7.24275 7.24275 8.25 6 8.25Z" fill="#DFAF4B"/>
</svg>
