<svg width="13" height="10" viewBox="0 0 13 10" fill="none" xmlns="http://www.w3.org/2000/svg">
<path d="M6.5 5.39611L0.008125 0H12.9919L6.5 5.39611ZM6.5 6.82611L0 1.42333V10H13V1.42333L6.5 6.82611Z" fill="#DFAF4B"/>
</svg>
